…
Let’s first take a look at the Bing lexicons:

get_sentiments("bing") %>% filter(sentiment=="positive")
## # A tibble: 2,005 × 2
##    word        sentiment
##    <chr>       <chr>    
##  1 abound      positive 
##  2 abounds     positive 
##  3 abundance   positive 
##  4 abundant    positive 
##  5 accessable  positive 
##  6 accessible  positive 
##  7 acclaim     positive 
##  8 acclaimed   positive 
##  9 acclamation positive 
## 10 accolade    positive 
## # ℹ 1,995 more rows
get_sentiments("bing") %>% filter(sentiment=="negative")
## # A tibble: 4,781 × 2
##    word        sentiment
##    <chr>       <chr>    
##  1 2-faces     negative 
##  2 abnormal    negative 
##  3 abolish     negative 
##  4 abominable  negative 
##  5 abominably  negative 
##  6 abominate   negative 
##  7 abomination negative 
##  8 abort       negative 
##  9 aborted     negative 
## 10 aborts      negative 
## # ℹ 4,771 more rows
…
